/* XPM */
static const char *resource_Emuall_ico_xpm[] = {
/* columns rows colors chars-per-pixel */
"48 48 28 1 ",
"  c #111111",
". c #222222",
"X c gray20",
"o c #770000",
"O c #336600",
"+ c #336633",
"@ c #444444",
"# c #555555",
"$ c gray40",
"% c #777777",
"& c #993333",
"* c #CC3333",
"= c #996633",
"- c #996666",
"; c #339900",
": c #339933",
"> c #66CC00",
", c #66FF00",
"< c #999966",
"1 c #CCCC66",
"2 c #CCFF66",
"3 c #888888",
"4 c gray60",
"5 c #AAAAAA",
"6 c #BBBBBB",
"7 c #CCCC99",
"8 c gray80",
"9 c None",
/* pixels */
"999999999999999999999999999999999999999999999999",
"999999999999999999999999999999999999999999999999",
"999999999999999999999999999999999999999999999999",
"999999999855555555555555555555555555555999999999",
"999999999555555555555555555555555555555699999999",
"999999999555555555555555555555555555555699999999",
"999999999555433333333333333333333334555699999999",
"999999999554333333333333333333333333455699999999",
"99999999955433333O;;;;;;;;;;;;;;3333345699999999",
"99999999955433333;,,,,,,,,,,,,,>3333345699999999",
"99999999955433333;,,,,,,,,,,,,,>3333345699999999",
"9999999995543*-33;,,,,,,,,,,,,,>3333345699999999",
"9999999995543&-33;,,,,,,,,,,,,,>3333345699999999",
"99999999955433333;,,,,,,,,,,,,,>3333345699999999",
"99999999955433333;,,,,,,,,,,,,,>3333345699999999",
"99999999955433333;,,,,,,,,,,,,,>3333345699999999",
"99999999955433333;,,,,,,,,,,,,,>3333345699999999",
"99999999955433333;,,,,,,,,,,,,,>3333345699999999",
"99999999955433333;,,,,,,,,,,,,,>3333345699999999",
"99999999955433333;,,,,,,,,,,,,,>3333345699999999",
"99999999955433333;,,,,,,,,,,,,,>3333355699999999",
"99999999955433333+::::::::::::::3333455699999999",
"999999999555333333333333333333333334555699999999",
"999999999555555551155555555515571555555699999999",
"999999999555555572777715775727171555555699999999",
"999999999555555512721121117217211555555699999999",
"999999999555555521711721122121125555555699999999",
"999999999555555445555555555555555555555699999999",
"999999999555555X.3555555555555555555555699999999",
"999999999555555. 3565555555555555544555699999999",
"9999999995554@@..X@%55555555555554oo-55699999999",
"9999999995553 .... %5555555555555&ooo55699999999",
"999999999555433. $345555555555555-oo&55699999999",
"999999999555554. 3555555555554=-554-555699999999",
"999999999555555$$455555555555&oo-555555699999999",
"99999999955555555555555555555ooo=555555699999999",
"99999999955555555555555555555<o&4555555699999999",
"999999999555555555555555555555555555555699999999",
"999999999555555555554$35553$55555555555699999999",
"9999999995555555555%#3555$$555555434555699999999",
"999999999555555554#%5554#35555554333455699999999",
"99999999955555555345555%555555555333345699999999",
"999999999555555555555555555555555533335699999999",
"999999999555555555555555555555555553345899999999",
"999999999655555555555555555555555555556999999999",
"999999999966556565655656565655656565669999999999",
"999999999999999999999999999999999999999999999999",
"999999999999999999999999999999999999999999999999"
};
